{
  "project_info": {
    "project_number": "208244369255",
    "project_id": "autoloka-apps",
    "storage_bucket": "autoloka-apps.appspot.com"
  },
  "client": [
    {
      "client_info": {
        "mobilesdk_app_id": "1:208244369255:android:3b56e8722d9b118b8ff1c2",
        "android_client_info": {
          "package_name": "com.autoloka.user"
        }
      },
      "oauth_client": [
        {
          "client_id": "208244369255-4n3uf7bqjng87mjug0gp2kvrbrfodmdh.apps.googleusercontent.com",
          "client_type": 1,
          "android_info": {
            "package_name": "com.autoloka.user",
            "certificate_hash": "e36aafdb60f456ebcd4209316875b77e0c4be560"
          }
        },
        {
          "client_id": "208244369255-97iut4ei0utjv4jmodhdpafegb9a330u.apps.googleusercontent.com",
          "client_type": 1,
          "android_info": {
            "package_name": "com.autoloka.user",
            "certificate_hash": "16c348e624906dcc3439783c89c53598e3b3a149"
          }
        },
        {
          "client_id": "208244369255-rgm37e2gle2ab1m3dnc4j94hvqliis6v.apps.googleusercontent.com",
          "client_type": 1,
          "android_info": {
            "package_name": "com.autoloka.user",
            "certificate_hash": "49dbe8630ce152d27707a51fed5fb6b7703f00e6"
          }
        },
        {
          "client_id": "208244369255-s841i1edomdb169emtb5p86l3lv94n4e.apps.googleusercontent.com",
          "client_type": 3
        }
      ],
      "api_key": [
        {
          "current_key": "AIzaSyAApWS4ouV5Z_Bb9LLPGJdzoQisqZDy2OA"
        }
      ],
      "services": {
        "appinvite_service": {
          "other_platform_oauth_client": [
            {
              "client_id": "208244369255-s841i1edomdb169emtb5p86l3lv94n4e.apps.googleusercontent.com",
              "client_type": 3
            },
            {
              "client_id": "208244369255-0fnh9si58rrqov8bib0ehprtm6qfi4ed.apps.googleusercontent.com",
              "client_type": 2,
              "ios_info": {
                "bundle_id": "id.jsl.checkout"
              }
            }
          ]
        }
      }
    },
    {
      "client_info": {
        "mobilesdk_app_id": "1:208244369255:android:ffd4814ffbcf14608ff1c2",
        "android_client_info": {
          "package_name": "com.jsl.scanner"
        }
      },
      "oauth_client": [
        {
          "client_id": "208244369255-s841i1edomdb169emtb5p86l3lv94n4e.apps.googleusercontent.com",
          "client_type": 3
        }
      ],
      "api_key": [
        {
          "current_key": "AIzaSyAApWS4ouV5Z_Bb9LLPGJdzoQisqZDy2OA"
        }
      ],
      "services": {
        "appinvite_service": {
          "other_platform_oauth_client": [
            {
              "client_id": "208244369255-s841i1edomdb169emtb5p86l3lv94n4e.apps.googleusercontent.com",
              "client_type": 3
            },
            {
              "client_id": "208244369255-0fnh9si58rrqov8bib0ehprtm6qfi4ed.apps.googleusercontent.com",
              "client_type": 2,
              "ios_info": {
                "bundle_id": "id.jsl.checkout"
              }
            }
          ]
        }
      }
    },
    {
      "client_info": {
        "mobilesdk_app_id": "1:208244369255:android:ea32a0bbbc54a7408ff1c2",
        "android_client_info": {
          "package_name": "id.jsl.checkout"
        }
      },
      "oauth_client": [
        {
          "client_id": "208244369255-058nutpt7uinl4c24e03ue9qh4ifp2bo.apps.googleusercontent.com",
          "client_type": 1,
          "android_info": {
            "package_name": "id.jsl.checkout",
            "certificate_hash": "6cf07b0bbb705262c84ab6cd17d2542f3b8712c8"
          }
        },
        {
          "client_id": "208244369255-s841i1edomdb169emtb5p86l3lv94n4e.apps.googleusercontent.com",
          "client_type": 3
        }
      ],
      "api_key": [
        {
          "current_key": "AIzaSyAApWS4ouV5Z_Bb9LLPGJdzoQisqZDy2OA"
        }
      ],
      "services": {
        "appinvite_service": {
          "other_platform_oauth_client": [
            {
              "client_id": "208244369255-s841i1edomdb169emtb5p86l3lv94n4e.apps.googleusercontent.com",
              "client_type": 3
            },
            {
              "client_id": "208244369255-0fnh9si58rrqov8bib0ehprtm6qfi4ed.apps.googleusercontent.com",
              "client_type": 2,
              "ios_info": {
                "bundle_id": "id.jsl.checkout"
              }
            }
          ]
        }
      }
    },
    {
      "client_info": {
        "mobilesdk_app_id": "1:208244369255:android:0a7ac3af4366dd578ff1c2",
        "android_client_info": {
          "package_name": "id.jsl.fnb"
        }
      },
      "oauth_client": [
        {
          "client_id": "208244369255-s841i1edomdb169emtb5p86l3lv94n4e.apps.googleusercontent.com",
          "client_type": 3
        }
      ],
      "api_key": [
        {
          "current_key": "AIzaSyAApWS4ouV5Z_Bb9LLPGJdzoQisqZDy2OA"
        }
      ],
      "services": {
        "appinvite_service": {
          "other_platform_oauth_client": [
            {
              "client_id": "208244369255-s841i1edomdb169emtb5p86l3lv94n4e.apps.googleusercontent.com",
              "client_type": 3
            },
            {
              "client_id": "208244369255-0fnh9si58rrqov8bib0ehprtm6qfi4ed.apps.googleusercontent.com",
              "client_type": 2,
              "ios_info": {
                "bundle_id": "id.jsl.checkout"
              }
            }
          ]
        }
      }
    },
    {
      "client_info": {
        "mobilesdk_app_id": "1:208244369255:android:ab3b993e80c7c4ac8ff1c2",
        "android_client_info": {
          "package_name": "id.jsl.hellocustomer"
        }
      },
      "oauth_client": [
        {
          "client_id": "208244369255-4gr9h7cfv741eqv3s1fii10r071ksueu.apps.googleusercontent.com",
          "client_type": 1,
          "android_info": {
            "package_name": "id.jsl.hellocustomer",
            "certificate_hash": "2a2e348e2d3fb966ed707333ee557f791c7f7e72"
          }
        },
        {
          "client_id": "208244369255-s841i1edomdb169emtb5p86l3lv94n4e.apps.googleusercontent.com",
          "client_type": 3
        }
      ],
      "api_key": [
        {
          "current_key": "AIzaSyAApWS4ouV5Z_Bb9LLPGJdzoQisqZDy2OA"
        }
      ],
      "services": {
        "appinvite_service": {
          "other_platform_oauth_client": [
            {
              "client_id": "208244369255-s841i1edomdb169emtb5p86l3lv94n4e.apps.googleusercontent.com",
              "client_type": 3
            },
            {
              "client_id": "208244369255-0fnh9si58rrqov8bib0ehprtm6qfi4ed.apps.googleusercontent.com",
              "client_type": 2,
              "ios_info": {
                "bundle_id": "id.jsl.checkout"
              }
            }
          ]
        }
      }
    },
    {
      "client_info": {
        "mobilesdk_app_id": "1:208244369255:android:0328f22be425aa358ff1c2",
        "android_client_info": {
          "package_name": "id.jsl.stockroom"
        }
      },
      "oauth_client": [
        {
          "client_id": "208244369255-mihp2g3o8gbl1us39ve12mqrh0embb7a.apps.googleusercontent.com",
          "client_type": 1,
          "android_info": {
            "package_name": "id.jsl.stockroom",
            "certificate_hash": "6cf07b0bbb705262c84ab6cd17d2542f3b8712c8"
          }
        },
        {
          "client_id": "208244369255-s841i1edomdb169emtb5p86l3lv94n4e.apps.googleusercontent.com",
          "client_type": 3
        }
      ],
      "api_key": [
        {
          "current_key": "AIzaSyAApWS4ouV5Z_Bb9LLPGJdzoQisqZDy2OA"
        }
      ],
      "services": {
        "appinvite_service": {
          "other_platform_oauth_client": [
            {
              "client_id": "208244369255-s841i1edomdb169emtb5p86l3lv94n4e.apps.googleusercontent.com",
              "client_type": 3
            },
            {
              "client_id": "208244369255-0fnh9si58rrqov8bib0ehprtm6qfi4ed.apps.googleusercontent.com",
              "client_type": 2,
              "ios_info": {
                "bundle_id": "id.jsl.checkout"
              }
            }
          ]
        }
      }
    },
    {
      "client_info": {
        "mobilesdk_app_id": "1:208244369255:android:b16fc7443a2eca7c8ff1c2",
        "android_client_info": {
          "package_name": "id.jsl.target"
        }
      },
      "oauth_client": [
        {
          "client_id": "208244369255-ibjchsm52m42v8s5ugf14kjc1bbgh217.apps.googleusercontent.com",
          "client_type": 1,
          "android_info": {
            "package_name": "id.jsl.target",
            "certificate_hash": "6cf07b0bbb705262c84ab6cd17d2542f3b8712c8"
          }
        },
        {
          "client_id": "208244369255-s841i1edomdb169emtb5p86l3lv94n4e.apps.googleusercontent.com",
          "client_type": 3
        }
      ],
      "api_key": [
        {
          "current_key": "AIzaSyAApWS4ouV5Z_Bb9LLPGJdzoQisqZDy2OA"
        }
      ],
      "services": {
        "appinvite_service": {
          "other_platform_oauth_client": [
            {
              "client_id": "208244369255-s841i1edomdb169emtb5p86l3lv94n4e.apps.googleusercontent.com",
              "client_type": 3
            },
            {
              "client_id": "208244369255-0fnh9si58rrqov8bib0ehprtm6qfi4ed.apps.googleusercontent.com",
              "client_type": 2,
              "ios_info": {
                "bundle_id": "id.jsl.checkout"
              }
            }
          ]
        }
      }
    },
    {
      "client_info": {
        "mobilesdk_app_id": "1:208244369255:android:045ff58cb60b52988ff1c2",
        "android_client_info": {
          "package_name": "id.jsl.teamforce"
        }
      },
      "oauth_client": [
        {
          "client_id": "208244369255-l9g3crdq3sb8d2h3br3u65u5u95hna2e.apps.googleusercontent.com",
          "client_type": 1,
          "android_info": {
            "package_name": "id.jsl.teamforce",
            "certificate_hash": "6cf07b0bbb705262c84ab6cd17d2542f3b8712c8"
          }
        },
        {
          "client_id": "208244369255-s841i1edomdb169emtb5p86l3lv94n4e.apps.googleusercontent.com",
          "client_type": 3
        }
      ],
      "api_key": [
        {
          "current_key": "AIzaSyAApWS4ouV5Z_Bb9LLPGJdzoQisqZDy2OA"
        }
      ],
      "services": {
        "appinvite_service": {
          "other_platform_oauth_client": [
            {
              "client_id": "208244369255-s841i1edomdb169emtb5p86l3lv94n4e.apps.googleusercontent.com",
              "client_type": 3
            },
            {
              "client_id": "208244369255-0fnh9si58rrqov8bib0ehprtm6qfi4ed.apps.googleusercontent.com",
              "client_type": 2,
              "ios_info": {
                "bundle_id": "id.jsl.checkout"
              }
            }
          ]
        }
      }
    },
    {
      "client_info": {
        "mobilesdk_app_id": "1:208244369255:android:913df24b2b09916a8ff1c2",
        "android_client_info": {
          "package_name": "id.telkom.monapro"
        }
      },
      "oauth_client": [
        {
          "client_id": "208244369255-s841i1edomdb169emtb5p86l3lv94n4e.apps.googleusercontent.com",
          "client_type": 3
        }
      ],
      "api_key": [
        {
          "current_key": "AIzaSyAApWS4ouV5Z_Bb9LLPGJdzoQisqZDy2OA"
        }
      ],
      "services": {
        "appinvite_service": {
          "other_platform_oauth_client": [
            {
              "client_id": "208244369255-s841i1edomdb169emtb5p86l3lv94n4e.apps.googleusercontent.com",
              "client_type": 3
            },
            {
              "client_id": "208244369255-0fnh9si58rrqov8bib0ehprtm6qfi4ed.apps.googleusercontent.com",
              "client_type": 2,
              "ios_info": {
                "bundle_id": "id.jsl.checkout"
              }
            }
          ]
        }
      }
    }
  ],
  "configuration_version": "1"
}